<?xml version="1.0" encoding="UTF-8"?>
<svg xmlns="http://www.w3.org/2000/svg" xmlns:xlink="http://www.w3.org/1999/xlink" width="499.99924" height="300" viewBox="0 0 499.99924 300">
<defs>
<clipPath id="clip-0">
<path clip-rule="nonzero" d="M 0.386719 198 L 498.667969 198 L 498.667969 199.90625 L 0.386719 199.90625 Z M 0.386719 198 "/>
</clipPath>
</defs>
<g clip-path="url(#clip-0)">
<path fill="none" stroke-width="0.3985" stroke-linecap="butt" stroke-linejoin="miter" stroke="rgb(0%, 0%, 0%)" stroke-opacity="1" stroke-miterlimit="10" d="M -42.521489 0.000671325 L 170.081781 0.000671325 " transform="matrix(2.343751, 0, 0, -2.343751, 100.046488, 199.310167)"/>
</g>
<path fill-rule="nonzero" fill="rgb(0%, 0%, 0%)" fill-opacity="1" stroke-width="0.3985" stroke-linecap="butt" stroke-linejoin="miter" stroke="rgb(0%, 0%, 0%)" stroke-opacity="1" stroke-miterlimit="10" d="M 2.111831 0.000671325 C 2.111831 1.167338 1.168498 2.112337 0.000165173 2.112337 C -1.168168 2.112337 -2.113168 1.167338 -2.113168 0.000671325 C -2.113168 -1.167662 -1.168168 -2.112661 0.000165173 -2.112661 C 1.168498 -2.112661 2.111831 -1.167662 2.111831 0.000671325 Z M 2.111831 0.000671325 " transform="matrix(2.343751, 0, 0, -2.343751, 100.046488, 199.310167)"/>
<path fill-rule="nonzero" fill="rgb(0%, 0%, 0%)" fill-opacity="1" stroke-width="0.3985" stroke-linecap="butt" stroke-linejoin="miter" stroke="rgb(0%, 0%, 0%)" stroke-opacity="1" stroke-miterlimit="10" d="M 87.163472 0.000671325 C 87.163472 1.167338 86.218473 2.112337 85.05014 2.112337 C 83.881807 2.112337 82.938474 1.167338 82.938474 0.000671325 C 82.938474 -1.167662 83.881807 -2.112661 85.05014 -2.112661 C 86.218473 -2.112661 87.163472 -1.167662 87.163472 0.000671325 Z M 87.163472 0.000671325 " transform="matrix(2.343751, 0, 0, -2.343751, 100.046488, 199.310167)"/>
<path fill="none" stroke-width="0.3985" stroke-linecap="butt" stroke-linejoin="miter" stroke="rgb(0%, 0%, 0%)" stroke-opacity="1" stroke-miterlimit="10" d="M 85.05014 0.000671325 L 85.05014 42.525659 " transform="matrix(2.343751, 0, 0, -2.343751, 100.046488, 199.310167)"/>
<path fill="none" stroke-width="0.3985" stroke-linecap="butt" stroke-linejoin="miter" stroke="rgb(0%, 0%, 0%)" stroke-opacity="1" stroke-miterlimit="10" d="M -12.676498 -6.33766 L 148.433454 74.217316 " transform="matrix(2.343751, 0, 0, -2.343751, 100.046488, 199.310167)"/>
<path fill="none" stroke-width="0.3985" stroke-linecap="butt" stroke-linejoin="miter" stroke="rgb(0%, 0%, 0%)" stroke-opacity="1" stroke-miterlimit="10" d="M 3.233498 -4.252661 L 81.816807 -4.252661 " transform="matrix(2.343751, 0, 0, -2.343751, 100.046488, 199.310167)"/>
<path fill="none" stroke-width="0.3985" stroke-linecap="round" stroke-linejoin="round" stroke="rgb(0%, 0%, 0%)" stroke-opacity="1" stroke-miterlimit="10" d="M -2.072742 2.392068 C -1.692742 0.957068 -0.849409 0.278735 0.000590789 0.000401716 C -0.849409 -0.277932 -1.692742 -0.956265 -2.072742 -2.389598 " transform="matrix(-2.343751, 0, 0, 2.343751, 107.157635, 209.276402)"/>
<path fill="none" stroke-width="0.3985" stroke-linecap="round" stroke-linejoin="round" stroke="rgb(0%, 0%, 0%)" stroke-opacity="1" stroke-miterlimit="10" d="M -2.073202 2.389598 C -1.693202 0.956265 -0.851536 0.277932 0.000130416 -0.000401716 C -0.851536 -0.278735 -1.693202 -0.957068 -2.073202 -2.392068 " transform="matrix(2.343751, 0, 0, -2.343751, 292.273132, 209.276402)"/>
<path fill-rule="nonzero" fill="rgb(0%, 0%, 0%)" fill-opacity="1" d="M 200.535156 217.660156 C 200.535156 217.21875 200.5 217.21875 200.058594 217.21875 C 198.992188 218.25 197.523438 218.25 196.859375 218.25 L 196.859375 218.835938 C 197.226562 218.835938 198.332031 218.835938 199.210938 218.394531 L 199.210938 226.738281 C 199.210938 227.253906 199.210938 227.472656 197.59375 227.472656 L 196.96875 227.472656 L 196.96875 228.0625 C 197.265625 228.0625 199.25 227.988281 199.875 227.988281 C 200.386719 227.988281 202.445312 228.0625 202.777344 228.0625 L 202.777344 227.472656 L 202.1875 227.472656 C 200.535156 227.472656 200.535156 227.253906 200.535156 226.738281 Z M 200.535156 217.660156 "/>
<path fill="none" stroke-width="0.3985" stroke-linecap="butt" stroke-linejoin="miter" stroke="rgb(100%, 0%, 0%)" stroke-opacity="1" stroke-miterlimit="10" d="M 89.303472 3.234004 L 89.303472 39.292326 " transform="matrix(2.343751, 0, 0, -2.343751, 100.046488, 199.310167)"/>
<path fill="none" stroke-width="0.3985" stroke-linecap="round" stroke-linejoin="round" stroke="rgb(100%, 0%, 0%)" stroke-opacity="1" stroke-miterlimit="10" d="M -2.07324 2.392098 C -1.693241 0.957099 -0.849907 0.278765 0.0000922918 0.000432184 C -0.849907 -0.277901 -1.693241 -0.956234 -2.07324 -2.391234 " transform="matrix(0, 2.343751, 2.343751, 0, 309.35055, 192.199002)"/>
<path fill="none" stroke-width="0.3985" stroke-linecap="round" stroke-linejoin="round" stroke="rgb(100%, 0%, 0%)" stroke-opacity="1" stroke-miterlimit="10" d="M -2.073954 2.391234 C -1.693954 0.956234 -0.850621 0.277901 -0.000621341 -0.000432184 C -0.850621 -0.278765 -1.693954 -0.957099 -2.073954 -2.392098 " transform="matrix(0, -2.343751, -2.343751, 0, 309.35055, 106.75245)"/>
<path fill-rule="nonzero" fill="rgb(100%, 0%, 0%)" fill-opacity="1" d="M 324.503906 150.644531 C 324.136719 150.09375 323.585938 149.691406 322.8125 149.691406 C 320.71875 149.691406 318.589844 151.96875 318.589844 154.355469 C 318.589844 155.9375 319.652344 157.039062 321.050781 157.039062 C 321.933594 157.039062 322.742188 156.5625 323.402344 155.902344 C 323.695312 156.894531 324.652344 157.039062 325.054688 157.039062 C 325.644531 157.039062 326.085938 156.710938 326.378906 156.195312 C 326.710938 155.570312 326.929688 154.613281 326.929688 154.542969 C 326.929688 154.355469 326.710938 154.355469 326.671875 154.355469 C 326.453125 154.355469 326.414062 154.394531 326.304688 154.835938 C 326.121094 155.644531 325.789062 156.597656 325.128906 156.597656 C 324.6875 156.597656 324.578125 156.230469 324.578125 155.789062 C 324.578125 155.535156 324.726562 154.945312 324.835938 154.503906 C 324.945312 154.0625 325.09375 153.402344 325.164062 153.035156 L 325.496094 151.785156 C 325.605469 151.378906 325.789062 150.609375 325.789062 150.5 C 325.789062 150.167969 325.496094 149.984375 325.238281 149.984375 C 324.980469 149.984375 324.578125 150.203125 324.503906 150.644531 Z M 323.4375 154.835938 C 323.328125 155.3125 322.960938 155.644531 322.628906 155.9375 C 322.484375 156.085938 321.820312 156.597656 321.125 156.597656 C 320.5 156.597656 319.910156 156.15625 319.910156 155.019531 C 319.910156 154.136719 320.386719 152.335938 320.757812 151.675781 C 321.527344 150.386719 322.335938 150.132812 322.8125 150.132812 C 323.953125 150.132812 324.285156 151.378906 324.285156 151.566406 C 324.285156 151.636719 324.246094 151.75 324.210938 151.785156 Z M 323.4375 154.835938 "/>
<path fill-rule="nonzero" fill="rgb(100%, 0%, 0%)" fill-opacity="1" d="M 338.015625 147.234375 C 338.199219 147.234375 338.527344 147.234375 338.527344 146.941406 C 338.527344 146.613281 338.199219 146.613281 338.015625 146.613281 L 330.113281 146.613281 C 329.894531 146.613281 329.597656 146.613281 329.597656 146.941406 C 329.597656 147.234375 329.894531 147.234375 330.113281 147.234375 Z M 338.015625 147.234375 "/>
<path fill-rule="nonzero" fill="rgb(100%, 0%, 0%)" fill-opacity="1" d="M 345.039062 142.421875 C 345.039062 142.054688 345.003906 142.054688 344.597656 142.054688 C 343.789062 142.828125 342.46875 142.828125 342.246094 142.828125 L 342.027344 142.828125 L 342.027344 143.339844 L 342.246094 143.339844 C 342.503906 143.339844 343.273438 143.304688 343.9375 143.011719 L 343.9375 148.851562 C 343.9375 149.21875 343.9375 149.332031 342.722656 149.332031 L 342.136719 149.332031 L 342.136719 149.84375 C 342.761719 149.808594 343.789062 149.808594 344.488281 149.808594 C 345.148438 149.808594 346.214844 149.808594 346.839844 149.84375 L 346.839844 149.332031 L 346.25 149.332031 C 345.039062 149.332031 345.039062 149.21875 345.039062 148.851562 Z M 345.039062 142.421875 "/>
<path fill-rule="nonzero" fill="rgb(0%, 0%, 100%)" fill-opacity="1" stroke-width="0.3985" stroke-linecap="butt" stroke-linejoin="miter" stroke="rgb(0%, 0%, 100%)" stroke-opacity="1" stroke-miterlimit="10" d="M 129.68846 0.000671325 C 129.68846 1.167338 128.74346 2.112337 127.575127 2.112337 C 126.408461 2.112337 125.463461 1.167338 125.463461 0.000671325 C 125.463461 -1.167662 126.408461 -2.112661 127.575127 -2.112661 C 128.74346 -2.112661 129.68846 -1.167662 129.68846 0.000671325 Z M 129.68846 0.000671325 " transform="matrix(2.343751, 0, 0, -2.343751, 100.046488, 199.310167)"/>
<path fill="none" stroke-width="0.3985" stroke-linecap="butt" stroke-linejoin="miter" stroke="rgb(0%, 0%, 100%)" stroke-opacity="1" stroke-miterlimit="10" d="M 3.233498 -21.260989 L 124.341795 -21.260989 " transform="matrix(2.343751, 0, 0, -2.343751, 100.046488, 199.310167)"/>
<path fill="none" stroke-width="0.3985" stroke-linecap="round" stroke-linejoin="round" stroke="rgb(0%, 0%, 100%)" stroke-opacity="1" stroke-miterlimit="10" d="M -2.072742 2.392577 C -1.692742 0.957578 -0.849409 0.279244 0.000590789 0.00091115 C -0.849409 -0.277422 -1.692742 -0.955755 -2.072742 -2.390755 " transform="matrix(-2.343751, 0, 0, 2.343751, 107.157635, 249.138489)"/>
<path fill="none" stroke-width="0.3985" stroke-linecap="round" stroke-linejoin="round" stroke="rgb(0%, 0%, 100%)" stroke-opacity="1" stroke-miterlimit="10" d="M -2.073577 2.390755 C -1.693577 0.955755 -0.850244 0.277422 -0.00024389 -0.00091115 C -0.850244 -0.279244 -1.693577 -0.957578 -2.073577 -2.392577 " transform="matrix(2.343751, 0, 0, -2.343751, 391.941978, 249.138489)"/>
<path fill-rule="nonzero" fill="rgb(0%, 0%, 100%)" fill-opacity="1" d="M 251.390625 258.179688 C 251.023438 257.628906 250.472656 257.222656 249.699219 257.222656 C 247.605469 257.222656 245.476562 259.503906 245.476562 261.890625 C 245.476562 263.472656 246.539062 264.574219 247.9375 264.574219 C 248.820312 264.574219 249.628906 264.097656 250.289062 263.433594 C 250.582031 264.425781 251.539062 264.574219 251.941406 264.574219 C 252.53125 264.574219 252.972656 264.242188 253.265625 263.726562 C 253.597656 263.105469 253.816406 262.148438 253.816406 262.074219 C 253.816406 261.890625 253.597656 261.890625 253.558594 261.890625 C 253.339844 261.890625 253.300781 261.925781 253.191406 262.367188 C 253.007812 263.175781 252.675781 264.132812 252.015625 264.132812 C 251.574219 264.132812 251.464844 263.765625 251.464844 263.324219 C 251.464844 263.066406 251.613281 262.480469 251.722656 262.039062 C 251.832031 261.597656 251.980469 260.933594 252.050781 260.566406 L 252.382812 259.320312 C 252.492188 258.914062 252.675781 258.144531 252.675781 258.03125 C 252.675781 257.703125 252.382812 257.519531 252.125 257.519531 C 251.867188 257.519531 251.464844 257.738281 251.390625 258.179688 Z M 250.324219 262.367188 C 250.214844 262.847656 249.847656 263.175781 249.515625 263.472656 C 249.371094 263.617188 248.707031 264.132812 248.011719 264.132812 C 247.386719 264.132812 246.796875 263.691406 246.796875 262.550781 C 246.796875 261.671875 247.273438 259.871094 247.644531 259.207031 C 248.414062 257.921875 249.222656 257.664062 249.699219 257.664062 C 250.839844 257.664062 251.171875 258.914062 251.171875 259.097656 C 251.171875 259.171875 251.132812 259.28125 251.097656 259.320312 Z M 250.324219 262.367188 "/>
<path fill="none" stroke-width="0.3985" stroke-linecap="butt" stroke-linejoin="miter" stroke="rgb(0%, 0%, 0%)" stroke-opacity="1" stroke-miterlimit="10" d="M 127.575127 0.000671325 L 127.560127 63.782319 " transform="matrix(2.343751, 0, 0, -2.343751, 100.046488, 199.310167)"/>
<path fill="none" stroke-width="0.3985" stroke-linecap="butt" stroke-linejoin="miter" stroke="rgb(0%, 0%, 0%)" stroke-opacity="1" stroke-miterlimit="10" d="M 131.828459 3.234004 L 131.813459 60.548987 " transform="matrix(2.343751, 0, 0, -2.343751, 100.046488, 199.310167)"/>
<path fill="none" stroke-width="0.3985" stroke-linecap="round" stroke-linejoin="round" stroke="rgb(0%, 0%, 0%)" stroke-opacity="1" stroke-miterlimit="10" d="M -2.072785 2.392922 C -1.693108 0.957807 -0.849914 0.279266 0.0000388705 0.000731592 C -0.850042 -0.277412 -1.693548 -0.955564 -2.073885 -2.388839 " transform="matrix(0.000539064, 2.343704, 2.343704, -0.000539064, 409.017817, 192.199128)"/>
<path fill="none" stroke-width="0.3985" stroke-linecap="round" stroke-linejoin="round" stroke="rgb(0%, 0%, 0%)" stroke-opacity="1" stroke-miterlimit="10" d="M -2.071751 2.392296 C -1.695407 0.957181 -0.848879 0.278639 -0.00226008 0.000105759 C -0.849007 -0.278038 -1.695847 -0.95619 -2.072851 -2.389465 " transform="matrix(-0.000539064, -2.343704, -2.343704, 0.000539064, 408.984622, 56.936109)"/>
<path fill-rule="nonzero" fill="rgb(0%, 0%, 0%)" fill-opacity="1" d="M 422.71875 119.4375 C 422.71875 118.996094 422.683594 118.996094 422.242188 118.996094 C 421.175781 120.023438 419.707031 120.023438 419.046875 120.023438 L 419.046875 120.613281 C 419.414062 120.613281 420.515625 120.613281 421.398438 120.171875 L 421.398438 128.515625 C 421.398438 129.027344 421.398438 129.25 419.78125 129.25 L 419.15625 129.25 L 419.15625 129.835938 C 419.449219 129.835938 421.433594 129.761719 422.058594 129.761719 C 422.574219 129.761719 424.632812 129.835938 424.960938 129.835938 L 424.960938 129.25 L 424.375 129.25 C 422.71875 129.25 422.71875 129.027344 422.71875 128.515625 Z M 422.71875 119.4375 "/>
</svg>
