<?xml version="1.0" encoding="UTF-8"?>
<svg xmlns="http://www.w3.org/2000/svg" xmlns:xlink="http://www.w3.org/1999/xlink" width="437.553573" height="300" viewBox="0 0 437.553573 300">
<path fill-rule="nonzero" fill="rgb(0%, 0%, 0%)" fill-opacity="1" d="M 70.566406 44.378906 C 70.828125 42.972656 71.003906 42.449219 72.058594 42.273438 C 72.582031 42.273438 74.339844 42.273438 75.480469 42.273438 C 79.425781 42.273438 85.570312 42.273438 85.570312 47.710938 C 85.570312 49.640625 84.691406 53.414062 82.5 55.609375 C 81.09375 57.011719 78.109375 58.765625 73.109375 58.765625 L 66.96875 58.765625 Z M 78.460938 59.46875 C 84.078125 58.328125 90.65625 54.378906 90.65625 48.851562 C 90.65625 44.027344 85.746094 40.515625 78.460938 40.515625 L 62.667969 40.515625 C 61.527344 40.515625 61.089844 40.515625 61.089844 41.65625 C 61.089844 42.273438 61.527344 42.273438 62.582031 42.273438 C 62.757812 42.273438 63.808594 42.273438 64.6875 42.359375 C 65.738281 42.449219 66.179688 42.535156 66.179688 43.238281 C 66.179688 43.414062 66.179688 43.589844 66.003906 44.289062 L 58.546875 74.035156 C 58.019531 76.140625 57.929688 76.578125 53.542969 76.578125 C 52.578125 76.578125 52.050781 76.578125 52.050781 77.71875 C 52.050781 78.332031 52.667969 78.332031 52.84375 78.332031 C 54.332031 78.332031 58.28125 78.15625 59.773438 78.15625 C 61.351562 78.15625 65.300781 78.332031 66.792969 78.332031 C 67.230469 78.332031 67.933594 78.332031 67.933594 77.191406 C 67.933594 76.578125 67.40625 76.578125 66.355469 76.578125 C 64.335938 76.578125 62.757812 76.578125 62.757812 75.613281 C 62.757812 75.261719 62.933594 75 62.933594 74.648438 L 66.617188 59.996094 L 73.199219 59.996094 C 78.199219 59.996094 79.25 63.066406 79.25 65.085938 C 79.25 65.875 78.8125 67.628906 78.460938 68.859375 C 78.023438 70.4375 77.585938 72.453125 77.585938 73.59375 C 77.585938 79.5625 84.164062 79.5625 84.953125 79.5625 C 89.605469 79.5625 91.535156 73.945312 91.535156 73.15625 C 91.535156 72.542969 90.921875 72.542969 90.921875 72.542969 C 90.394531 72.542969 90.308594 72.894531 90.21875 73.332031 C 88.816406 77.367188 86.445312 78.332031 85.128906 78.332031 C 83.289062 78.332031 82.9375 77.105469 82.9375 75 C 82.9375 73.246094 83.289062 70.4375 83.464844 68.683594 C 83.640625 67.890625 83.726562 66.839844 83.726562 66.050781 C 83.726562 61.75 80.042969 60.082031 78.460938 59.46875 Z M 78.460938 59.46875 "/>
<path fill-rule="nonzero" fill="rgb(0%, 0%, 0%)" fill-opacity="1" d="M 96.960938 55.792969 C 96.785156 56.320312 96.609375 57.285156 96.609375 57.371094 C 96.609375 58.25 97.222656 58.601562 97.925781 58.601562 C 98.539062 58.601562 99.242188 58.164062 99.414062 57.8125 C 99.589844 57.460938 99.941406 56.230469 100.117188 55.355469 C 100.292969 54.652344 100.730469 52.898438 100.90625 51.933594 C 101.171875 51.054688 101.433594 50.179688 101.609375 49.300781 C 102.046875 47.722656 102.136719 47.371094 103.277344 45.789062 C 104.328125 44.210938 106.171875 42.195312 109.066406 42.195312 C 111.261719 42.195312 111.347656 44.210938 111.347656 44.914062 C 111.347656 47.28125 109.679688 51.582031 109.066406 53.25 C 108.628906 54.300781 108.453125 54.652344 108.453125 55.265625 C 108.453125 57.371094 110.207031 58.601562 112.136719 58.601562 C 116 58.601562 117.753906 53.25 117.753906 52.722656 C 117.753906 52.195312 117.226562 52.195312 117.140625 52.195312 C 116.613281 52.195312 116.523438 52.460938 116.351562 52.898438 C 115.472656 55.96875 113.804688 57.546875 112.3125 57.546875 C 111.4375 57.546875 111.261719 57.023438 111.261719 56.230469 C 111.261719 55.265625 111.523438 54.828125 112.226562 53.074219 C 112.664062 51.84375 114.242188 47.722656 114.242188 45.527344 C 114.242188 41.84375 111.261719 41.140625 109.242188 41.140625 C 105.996094 41.140625 103.804688 43.160156 102.664062 44.648438 C 102.398438 42.019531 100.117188 41.140625 98.539062 41.140625 C 96.871094 41.140625 95.90625 42.367188 95.46875 43.246094 C 94.589844 44.648438 94.0625 46.84375 94.0625 47.105469 C 94.0625 47.546875 94.589844 47.546875 94.679688 47.546875 C 95.203125 47.546875 95.292969 47.457031 95.554688 46.40625 C 96.167969 44.125 96.871094 42.195312 98.363281 42.195312 C 99.414062 42.195312 99.679688 43.070312 99.679688 44.125 C 99.679688 44.914062 99.328125 46.316406 99.066406 47.371094 C 98.800781 48.421875 98.363281 50.003906 98.1875 50.878906 Z M 96.960938 55.792969 "/>
<path fill-rule="nonzero" fill="rgb(0%, 0%, 0%)" fill-opacity="1" d="M 323.644531 44.378906 C 323.90625 42.972656 324.082031 42.449219 325.136719 42.273438 C 325.660156 42.273438 327.417969 42.273438 328.558594 42.273438 C 332.503906 42.273438 338.648438 42.273438 338.648438 47.710938 C 338.648438 49.640625 337.769531 53.414062 335.574219 55.609375 C 334.171875 57.011719 331.1875 58.765625 326.1875 58.765625 L 320.046875 58.765625 Z M 331.539062 59.46875 C 337.15625 58.328125 343.734375 54.378906 343.734375 48.851562 C 343.734375 44.027344 338.824219 40.515625 331.539062 40.515625 L 315.746094 40.515625 C 314.605469 40.515625 314.167969 40.515625 314.167969 41.65625 C 314.167969 42.273438 314.605469 42.273438 315.660156 42.273438 C 315.835938 42.273438 316.886719 42.273438 317.765625 42.359375 C 318.816406 42.449219 319.257812 42.535156 319.257812 43.238281 C 319.257812 43.414062 319.257812 43.589844 319.082031 44.289062 L 311.621094 74.035156 C 311.097656 76.140625 311.007812 76.578125 306.621094 76.578125 C 305.65625 76.578125 305.128906 76.578125 305.128906 77.71875 C 305.128906 78.332031 305.746094 78.332031 305.917969 78.332031 C 307.410156 78.332031 311.359375 78.15625 312.851562 78.15625 C 314.429688 78.15625 318.378906 78.332031 319.871094 78.332031 C 320.308594 78.332031 321.011719 78.332031 321.011719 77.191406 C 321.011719 76.578125 320.484375 76.578125 319.433594 76.578125 C 317.414062 76.578125 315.835938 76.578125 315.835938 75.613281 C 315.835938 75.261719 316.011719 75 316.011719 74.648438 L 319.695312 59.996094 L 326.277344 59.996094 C 331.277344 59.996094 332.328125 63.066406 332.328125 65.085938 C 332.328125 65.875 331.890625 67.628906 331.539062 68.859375 C 331.101562 70.4375 330.664062 72.453125 330.664062 73.59375 C 330.664062 79.5625 337.242188 79.5625 338.03125 79.5625 C 342.683594 79.5625 344.613281 73.945312 344.613281 73.15625 C 344.613281 72.542969 344 72.542969 344 72.542969 C 343.472656 72.542969 343.386719 72.894531 343.296875 73.332031 C 341.894531 77.367188 339.523438 78.332031 338.207031 78.332031 C 336.367188 78.332031 336.015625 77.105469 336.015625 75 C 336.015625 73.246094 336.367188 70.4375 336.542969 68.683594 C 336.714844 67.890625 336.804688 66.839844 336.804688 66.050781 C 336.804688 61.75 333.121094 60.082031 331.539062 59.46875 Z M 331.539062 59.46875 "/>
<path fill-rule="nonzero" fill="rgb(0%, 0%, 0%)" fill-opacity="1" d="M 362.144531 55.089844 C 361.96875 55.882812 361.617188 57.195312 361.617188 57.371094 C 361.617188 58.25 362.320312 58.601562 362.933594 58.601562 C 363.636719 58.601562 364.25 58.164062 364.425781 57.8125 C 364.601562 57.460938 364.953125 56.230469 365.128906 55.355469 C 365.304688 54.652344 365.742188 52.898438 366.003906 51.933594 C 366.179688 51.054688 366.445312 50.179688 366.621094 49.300781 C 367.058594 47.632812 367.058594 47.546875 367.847656 46.316406 C 369.078125 44.476562 371.007812 42.195312 374.078125 42.195312 C 376.183594 42.195312 376.359375 44.035156 376.359375 44.914062 C 376.359375 47.28125 374.691406 51.582031 374.078125 53.25 C 373.640625 54.300781 373.464844 54.652344 373.464844 55.265625 C 373.464844 57.371094 375.128906 58.601562 377.148438 58.601562 C 381.007812 58.601562 382.765625 53.25 382.765625 52.722656 C 382.765625 52.195312 382.238281 52.195312 382.0625 52.195312 C 381.535156 52.195312 381.535156 52.460938 381.359375 52.898438 C 380.484375 55.96875 378.816406 57.546875 377.234375 57.546875 C 376.445312 57.546875 376.269531 57.023438 376.269531 56.230469 C 376.269531 55.265625 376.445312 54.828125 377.148438 53.074219 C 377.675781 51.84375 379.253906 47.722656 379.253906 45.527344 C 379.253906 44.914062 379.253906 43.335938 377.761719 42.195312 C 377.148438 41.667969 376.007812 41.140625 374.164062 41.140625 C 370.742188 41.140625 368.550781 43.421875 367.320312 45.089844 C 367.058594 41.753906 364.25 41.140625 362.320312 41.140625 C 359.074219 41.140625 356.878906 43.160156 355.738281 44.648438 C 355.476562 42.019531 353.195312 41.140625 351.617188 41.140625 C 349.949219 41.140625 348.984375 42.367188 348.546875 43.246094 C 347.667969 44.648438 347.140625 46.84375 347.140625 47.105469 C 347.140625 47.546875 347.667969 47.546875 347.753906 47.546875 C 348.28125 47.546875 348.371094 47.457031 348.632812 46.40625 C 349.246094 44.125 349.949219 42.195312 351.441406 42.195312 C 352.492188 42.195312 352.757812 43.070312 352.757812 44.125 C 352.757812 44.914062 352.40625 46.316406 352.144531 47.371094 C 351.878906 48.421875 351.441406 50.003906 351.265625 50.878906 L 350.035156 55.792969 C 349.863281 56.320312 349.6875 57.285156 349.6875 57.371094 C 349.6875 58.25 350.300781 58.601562 351.003906 58.601562 C 351.617188 58.601562 352.316406 58.164062 352.492188 57.8125 C 352.667969 57.460938 353.019531 56.230469 353.195312 55.355469 C 353.371094 54.652344 353.808594 52.898438 353.984375 51.933594 C 354.25 51.054688 354.511719 50.179688 354.6875 49.300781 C 355.125 47.722656 355.214844 47.371094 356.355469 45.789062 C 357.40625 44.210938 359.25 42.195312 362.144531 42.195312 C 364.339844 42.195312 364.425781 44.210938 364.425781 44.914062 C 364.425781 45.878906 364.339844 46.40625 363.722656 48.597656 Z M 362.144531 55.089844 "/>
<path fill-rule="nonzero" fill="rgb(0%, 0%, 0%)" fill-opacity="1" d="M 70.566406 222.339844 C 70.828125 220.933594 71.003906 220.410156 72.058594 220.234375 C 72.582031 220.234375 74.339844 220.234375 75.480469 220.234375 C 79.425781 220.234375 85.570312 220.234375 85.570312 225.671875 C 85.570312 227.605469 84.691406 231.375 82.5 233.570312 C 81.09375 234.972656 78.109375 236.726562 73.109375 236.726562 L 66.96875 236.726562 Z M 78.460938 237.429688 C 84.078125 236.289062 90.65625 232.339844 90.65625 226.8125 C 90.65625 221.988281 85.746094 218.480469 78.460938 218.480469 L 62.667969 218.480469 C 61.527344 218.480469 61.089844 218.480469 61.089844 219.621094 C 61.089844 220.234375 61.527344 220.234375 62.582031 220.234375 C 62.757812 220.234375 63.808594 220.234375 64.6875 220.320312 C 65.738281 220.410156 66.179688 220.496094 66.179688 221.199219 C 66.179688 221.375 66.179688 221.550781 66.003906 222.25 L 58.546875 251.996094 C 58.019531 254.101562 57.929688 254.539062 53.542969 254.539062 C 52.578125 254.539062 52.050781 254.539062 52.050781 255.679688 C 52.050781 256.292969 52.667969 256.292969 52.84375 256.292969 C 54.332031 256.292969 58.28125 256.117188 59.773438 256.117188 C 61.351562 256.117188 65.300781 256.292969 66.792969 256.292969 C 67.230469 256.292969 67.933594 256.292969 67.933594 255.152344 C 67.933594 254.539062 67.40625 254.539062 66.355469 254.539062 C 64.335938 254.539062 62.757812 254.539062 62.757812 253.574219 C 62.757812 253.222656 62.933594 252.960938 62.933594 252.609375 L 66.617188 237.957031 L 73.199219 237.957031 C 78.199219 237.957031 79.25 241.027344 79.25 243.046875 C 79.25 243.835938 78.8125 245.589844 78.460938 246.820312 C 78.023438 248.398438 77.585938 250.414062 77.585938 251.554688 C 77.585938 257.523438 84.164062 257.523438 84.953125 257.523438 C 89.605469 257.523438 91.535156 251.90625 91.535156 251.117188 C 91.535156 250.503906 90.921875 250.503906 90.921875 250.503906 C 90.394531 250.503906 90.308594 250.855469 90.21875 251.292969 C 88.816406 255.328125 86.445312 256.292969 85.128906 256.292969 C 83.289062 256.292969 82.9375 255.066406 82.9375 252.960938 C 82.9375 251.207031 83.289062 248.398438 83.464844 246.644531 C 83.640625 245.851562 83.726562 244.800781 83.726562 244.011719 C 83.726562 239.710938 80.042969 238.042969 78.460938 237.429688 Z M 78.460938 237.429688 "/>
<path fill-rule="nonzero" fill="rgb(0%, 0%, 0%)" fill-opacity="1" d="M 96.960938 233.753906 C 96.785156 234.28125 96.609375 235.246094 96.609375 235.332031 C 96.609375 236.210938 97.222656 236.5625 97.925781 236.5625 C 98.539062 236.5625 99.242188 236.125 99.414062 235.773438 C 99.589844 235.421875 99.941406 234.191406 100.117188 233.316406 C 100.292969 232.613281 100.730469 230.859375 100.90625 229.894531 C 101.171875 229.015625 101.433594 228.140625 101.609375 227.261719 C 102.046875 225.683594 102.136719 225.332031 103.277344 223.753906 C 104.328125 222.171875 106.171875 220.15625 109.066406 220.15625 C 111.261719 220.15625 111.347656 222.171875 111.347656 222.875 C 111.347656 225.242188 109.679688 229.542969 109.066406 231.210938 C 108.628906 232.261719 108.453125 232.613281 108.453125 233.226562 C 108.453125 235.332031 110.207031 236.5625 112.136719 236.5625 C 116 236.5625 117.753906 231.210938 117.753906 230.683594 C 117.753906 230.15625 117.226562 230.15625 117.140625 230.15625 C 116.613281 230.15625 116.523438 230.421875 116.351562 230.859375 C 115.472656 233.929688 113.804688 235.507812 112.3125 235.507812 C 111.4375 235.507812 111.261719 234.984375 111.261719 234.191406 C 111.261719 233.226562 111.523438 232.789062 112.226562 231.035156 C 112.664062 229.804688 114.242188 225.683594 114.242188 223.488281 C 114.242188 219.804688 111.261719 219.101562 109.242188 219.101562 C 105.996094 219.101562 103.804688 221.121094 102.664062 222.613281 C 102.398438 219.980469 100.117188 219.101562 98.539062 219.101562 C 96.871094 219.101562 95.90625 220.332031 95.46875 221.207031 C 94.589844 222.613281 94.0625 224.804688 94.0625 225.066406 C 94.0625 225.507812 94.589844 225.507812 94.679688 225.507812 C 95.203125 225.507812 95.292969 225.417969 95.554688 224.367188 C 96.167969 222.085938 96.871094 220.15625 98.363281 220.15625 C 99.414062 220.15625 99.679688 221.03125 99.679688 222.085938 C 99.679688 222.875 99.328125 224.277344 99.066406 225.332031 C 98.800781 226.382812 98.363281 227.964844 98.1875 228.839844 Z M 96.960938 233.753906 "/>
<path fill-rule="nonzero" fill="rgb(0%, 0%, 0%)" fill-opacity="1" d="M 323.644531 222.339844 C 323.90625 220.933594 324.082031 220.410156 325.136719 220.234375 C 325.660156 220.234375 327.417969 220.234375 328.558594 220.234375 C 332.503906 220.234375 338.648438 220.234375 338.648438 225.671875 C 338.648438 227.605469 337.769531 231.375 335.574219 233.570312 C 334.171875 234.972656 331.1875 236.726562 326.1875 236.726562 L 320.046875 236.726562 Z M 331.539062 237.429688 C 337.15625 236.289062 343.734375 232.339844 343.734375 226.8125 C 343.734375 221.988281 338.824219 218.480469 331.539062 218.480469 L 315.746094 218.480469 C 314.605469 218.480469 314.167969 218.480469 314.167969 219.621094 C 314.167969 220.234375 314.605469 220.234375 315.660156 220.234375 C 315.835938 220.234375 316.886719 220.234375 317.765625 220.320312 C 318.816406 220.410156 319.257812 220.496094 319.257812 221.199219 C 319.257812 221.375 319.257812 221.550781 319.082031 222.25 L 311.621094 251.996094 C 311.097656 254.101562 311.007812 254.539062 306.621094 254.539062 C 305.65625 254.539062 305.128906 254.539062 305.128906 255.679688 C 305.128906 256.292969 305.746094 256.292969 305.917969 256.292969 C 307.410156 256.292969 311.359375 256.117188 312.851562 256.117188 C 314.429688 256.117188 318.378906 256.292969 319.871094 256.292969 C 320.308594 256.292969 321.011719 256.292969 321.011719 255.152344 C 321.011719 254.539062 320.484375 254.539062 319.433594 254.539062 C 317.414062 254.539062 315.835938 254.539062 315.835938 253.574219 C 315.835938 253.222656 316.011719 252.960938 316.011719 252.609375 L 319.695312 237.957031 L 326.277344 237.957031 C 331.277344 237.957031 332.328125 241.027344 332.328125 243.046875 C 332.328125 243.835938 331.890625 245.589844 331.539062 246.820312 C 331.101562 248.398438 330.664062 250.414062 330.664062 251.554688 C 330.664062 257.523438 337.242188 257.523438 338.03125 257.523438 C 342.683594 257.523438 344.613281 251.90625 344.613281 251.117188 C 344.613281 250.503906 344 250.503906 344 250.503906 C 343.472656 250.503906 343.386719 250.855469 343.296875 251.292969 C 341.894531 255.328125 339.523438 256.292969 338.207031 256.292969 C 336.367188 256.292969 336.015625 255.066406 336.015625 252.960938 C 336.015625 251.207031 336.367188 248.398438 336.542969 246.644531 C 336.714844 245.851562 336.804688 244.800781 336.804688 244.011719 C 336.804688 239.710938 333.121094 238.042969 331.539062 237.429688 Z M 331.539062 237.429688 "/>
<path fill-rule="nonzero" fill="rgb(0%, 0%, 0%)" fill-opacity="1" d="M 362.144531 233.050781 C 361.96875 233.84375 361.617188 235.160156 361.617188 235.332031 C 361.617188 236.210938 362.320312 236.5625 362.933594 236.5625 C 363.636719 236.5625 364.25 236.125 364.425781 235.773438 C 364.601562 235.421875 364.953125 234.191406 365.128906 233.316406 C 365.304688 232.613281 365.742188 230.859375 366.003906 229.894531 C 366.179688 229.015625 366.445312 228.140625 366.621094 227.261719 C 367.058594 225.59375 367.058594 225.507812 367.847656 224.277344 C 369.078125 222.4375 371.007812 220.15625 374.078125 220.15625 C 376.183594 220.15625 376.359375 221.996094 376.359375 222.875 C 376.359375 225.242188 374.691406 229.542969 374.078125 231.210938 C 373.640625 232.261719 373.464844 232.613281 373.464844 233.226562 C 373.464844 235.332031 375.128906 236.5625 377.148438 236.5625 C 381.007812 236.5625 382.765625 231.210938 382.765625 230.683594 C 382.765625 230.15625 382.238281 230.15625 382.0625 230.15625 C 381.535156 230.15625 381.535156 230.421875 381.359375 230.859375 C 380.484375 233.929688 378.816406 235.507812 377.234375 235.507812 C 376.445312 235.507812 376.269531 234.984375 376.269531 234.191406 C 376.269531 233.226562 376.445312 232.789062 377.148438 231.035156 C 377.675781 229.804688 379.253906 225.683594 379.253906 223.488281 C 379.253906 222.875 379.253906 221.296875 377.761719 220.15625 C 377.148438 219.628906 376.007812 219.101562 374.164062 219.101562 C 370.742188 219.101562 368.550781 221.382812 367.320312 223.050781 C 367.058594 219.714844 364.25 219.101562 362.320312 219.101562 C 359.074219 219.101562 356.878906 221.121094 355.738281 222.613281 C 355.476562 219.980469 353.195312 219.101562 351.617188 219.101562 C 349.949219 219.101562 348.984375 220.332031 348.546875 221.207031 C 347.667969 222.613281 347.140625 224.804688 347.140625 225.066406 C 347.140625 225.507812 347.667969 225.507812 347.753906 225.507812 C 348.28125 225.507812 348.371094 225.417969 348.632812 224.367188 C 349.246094 222.085938 349.949219 220.15625 351.441406 220.15625 C 352.492188 220.15625 352.757812 221.03125 352.757812 222.085938 C 352.757812 222.875 352.40625 224.277344 352.144531 225.332031 C 351.878906 226.382812 351.441406 227.964844 351.265625 228.839844 L 350.035156 233.753906 C 349.863281 234.28125 349.6875 235.246094 349.6875 235.332031 C 349.6875 236.210938 350.300781 236.5625 351.003906 236.5625 C 351.617188 236.5625 352.316406 236.125 352.492188 235.773438 C 352.667969 235.421875 353.019531 234.191406 353.195312 233.316406 C 353.371094 232.613281 353.808594 230.859375 353.984375 229.894531 C 354.25 229.015625 354.511719 228.140625 354.6875 227.261719 C 355.125 225.683594 355.214844 225.332031 356.355469 223.753906 C 357.40625 222.171875 359.25 220.15625 362.144531 220.15625 C 364.339844 220.15625 364.425781 222.171875 364.425781 222.875 C 364.425781 223.839844 364.339844 224.367188 363.722656 226.558594 Z M 362.144531 233.050781 "/>
<path fill="none" stroke-width="0.39848" stroke-linecap="butt" stroke-linejoin="miter" stroke="rgb(0%, 0%, 0%)" stroke-opacity="1" stroke-miterlimit="10" d="M -12.827086 32.034107 L 10.286036 32.034107 " transform="matrix(5.555556, 0, 0, -5.555556, 218.554566, 242.455571)"/>
<path fill="none" stroke-width="0.39848" stroke-linecap="round" stroke-linejoin="round" stroke="rgb(0%, 0%, 0%)" stroke-opacity="1" stroke-miterlimit="10" d="M -2.073616 2.389525 C -1.694632 0.956556 -0.849476 0.277338 -0.000804096 0.00100954 C -0.849476 -0.279537 -1.694632 -0.954537 -2.073616 -2.391724 " transform="matrix(5.555556, 0, 0, -5.555556, 276.801342, 64.49389)"/>
<path fill-rule="nonzero" fill="rgb(0%, 0%, 0%)" fill-opacity="1" d="M 203.9375 46.828125 C 202.621094 48.933594 201.308594 49.898438 199.027344 50.074219 C 198.675781 50.160156 198.148438 50.160156 198.148438 50.863281 C 198.148438 51.300781 198.5 51.476562 198.675781 51.476562 C 199.726562 51.476562 200.957031 51.300781 202.007812 51.300781 C 203.324219 51.300781 204.902344 51.476562 206.042969 51.476562 C 206.21875 51.476562 206.835938 51.476562 206.835938 50.601562 C 206.835938 50.160156 206.308594 50.074219 206.132812 50.074219 C 205.871094 50.074219 204.464844 49.984375 204.464844 48.933594 C 204.464844 48.496094 204.816406 47.792969 204.992188 47.441406 L 208.152344 42.617188 L 219.207031 42.617188 L 220.171875 49.109375 C 219.996094 49.460938 219.730469 50.074219 217.449219 50.074219 C 217.011719 50.074219 216.484375 50.074219 216.484375 50.953125 C 216.484375 51.125 216.574219 51.476562 217.101562 51.476562 C 218.242188 51.476562 220.960938 51.300781 222.101562 51.300781 C 222.804688 51.300781 223.679688 51.390625 224.382812 51.390625 C 225.085938 51.390625 225.875 51.476562 226.574219 51.476562 C 227.101562 51.476562 227.367188 51.125 227.367188 50.6875 C 227.367188 50.074219 226.925781 50.074219 226.3125 50.074219 C 224.03125 50.074219 223.945312 49.8125 223.855469 48.84375 L 220.433594 24.894531 C 220.347656 24.101562 220.257812 23.839844 219.46875 23.839844 C 218.765625 23.839844 218.503906 24.191406 218.152344 24.71875 Z M 209.027344 41.210938 L 217.1875 28.578125 L 219.03125 41.210938 Z M 209.027344 41.210938 "/>
<path fill="none" stroke-width="0.39848" stroke-linecap="butt" stroke-linejoin="miter" stroke="rgb(0%, 0%, 0%)" stroke-opacity="1" stroke-miterlimit="10" d="M -23.850678 25.696843 L -23.850678 8.561689 " transform="matrix(5.555556, 0, 0, -5.555556, 218.554566, 242.455571)"/>
<path fill="none" stroke-width="0.39848" stroke-linecap="round" stroke-linejoin="round" stroke="rgb(0%, 0%, 0%)" stroke-opacity="1" stroke-miterlimit="10" d="M -2.070933 2.391572 C -1.691948 0.958604 -0.851011 0.279385 0.00187967 -0.00116198 C -0.851011 -0.27749 -1.691948 -0.956709 -2.070933 -2.389677 " transform="matrix(0, 5.555556, 5.555556, 0, 86.057237, 196.001276)"/>
<path fill-rule="nonzero" fill="rgb(0%, 0%, 0%)" fill-opacity="1" d="M 52.148438 149.617188 L 59.167969 149.617188 C 65.660156 149.617188 71.273438 145.40625 71.273438 141.195312 C 71.273438 137.949219 68.027344 135.140625 62.765625 135.140625 L 49.164062 135.140625 C 48.375 135.140625 47.9375 135.140625 47.9375 136.019531 C 47.9375 136.546875 48.375 136.546875 49.253906 136.546875 C 49.867188 136.546875 49.953125 136.546875 50.65625 136.632812 C 51.445312 136.722656 51.535156 136.808594 51.535156 137.160156 C 51.535156 137.246094 51.535156 137.421875 51.359375 138.035156 L 46.269531 158.480469 C 45.917969 159.972656 45.832031 160.234375 42.847656 160.234375 C 42.144531 160.234375 41.617188 160.234375 41.617188 161.113281 C 41.617188 161.113281 41.617188 161.640625 42.234375 161.640625 C 43.375 161.640625 46.179688 161.464844 47.320312 161.464844 C 47.9375 161.464844 49.339844 161.464844 49.953125 161.550781 C 50.742188 161.550781 51.710938 161.640625 52.5 161.640625 C 52.675781 161.640625 53.289062 161.640625 53.289062 160.761719 C 53.289062 160.234375 52.851562 160.234375 52.058594 160.234375 C 51.972656 160.234375 51.269531 160.234375 50.570312 160.148438 C 49.691406 160.058594 49.691406 159.972656 49.691406 159.621094 C 49.691406 159.53125 49.691406 159.269531 49.867188 158.742188 Z M 54.957031 137.863281 C 55.21875 136.632812 55.304688 136.546875 56.886719 136.546875 L 61.449219 136.546875 C 65.046875 136.546875 67.328125 137.597656 67.328125 140.40625 C 67.328125 141.546875 66.800781 144.617188 64.871094 146.371094 C 63.464844 147.601562 61.273438 148.390625 58.464844 148.390625 L 52.234375 148.390625 Z M 54.957031 137.863281 "/>
<path fill="none" stroke-width="0.39848" stroke-linecap="butt" stroke-linejoin="miter" stroke="rgb(0%, 0%, 0%)" stroke-opacity="1" stroke-miterlimit="10" d="M -12.827086 0.00184656 L 10.286036 0.00184656 " transform="matrix(5.555556, 0, 0, -5.555556, 218.554566, 242.455571)"/>
<path fill="none" stroke-width="0.39848" stroke-linecap="round" stroke-linejoin="round" stroke="rgb(0%, 0%, 0%)" stroke-opacity="1" stroke-miterlimit="10" d="M -2.073616 2.390362 C -1.694632 0.95669 -0.849476 0.278175 -0.000804096 0.00184656 C -0.849476 -0.2787 -1.694632 -0.957919 -2.073616 -2.390887 " transform="matrix(5.555556, 0, 0, -5.555556, 276.801342, 242.455571)"/>
<path fill-rule="nonzero" fill="rgb(0%, 0%, 0%)" fill-opacity="1" d="M 201.28125 278.972656 C 200.929688 280.289062 200.839844 280.550781 197.859375 280.550781 C 197.15625 280.550781 196.628906 280.550781 196.628906 281.429688 C 196.628906 281.957031 197.15625 281.957031 197.859375 281.957031 L 211.632812 281.957031 C 220.320312 281.957031 228.566406 274.058594 228.566406 265.546875 C 228.566406 259.933594 224.617188 255.457031 218.300781 255.457031 L 204.175781 255.457031 C 203.386719 255.457031 202.949219 255.457031 202.949219 256.335938 C 202.949219 256.863281 203.386719 256.863281 204.261719 256.863281 C 204.878906 256.863281 204.964844 256.863281 205.667969 256.949219 C 206.457031 257.039062 206.542969 257.125 206.542969 257.476562 C 206.542969 257.5625 206.542969 257.738281 206.371094 258.355469 Z M 209.964844 258.179688 C 210.230469 256.949219 210.316406 256.863281 211.898438 256.863281 L 216.898438 256.863281 C 221.195312 256.863281 224.882812 259.054688 224.882812 264.320312 C 224.882812 265.195312 224.445312 271.953125 220.582031 276.339844 C 219.089844 278.09375 215.757812 280.550781 210.933594 280.550781 L 205.667969 280.550781 C 204.527344 280.550781 204.4375 280.550781 204.4375 280.199219 C 204.4375 280.113281 204.4375 279.9375 204.613281 279.324219 Z M 209.964844 258.179688 "/>
<path fill="none" stroke-width="0.39848" stroke-linecap="butt" stroke-linejoin="miter" stroke="rgb(0%, 0%, 0%)" stroke-opacity="1" stroke-miterlimit="10" d="M 22.778456 25.696843 L 22.778456 8.561689 " transform="matrix(5.555556, 0, 0, -5.555556, 218.554566, 242.455571)"/>
<path fill="none" stroke-width="0.39848" stroke-linecap="round" stroke-linejoin="round" stroke="rgb(0%, 0%, 0%)" stroke-opacity="1" stroke-miterlimit="10" d="M -2.070933 2.390548 C -1.691948 0.956876 -0.851011 0.277657 0.00187967 0.00132923 C -0.851011 -0.278514 -1.691948 -0.957733 -2.070933 -2.391405 " transform="matrix(0, 5.555556, 5.555556, 0, 345.094178, 196.001276)"/>
<path fill-rule="nonzero" fill="rgb(0%, 0%, 0%)" fill-opacity="1" d="M 315.289062 160.242188 C 315.289062 162.699219 315.730469 165.417969 318.976562 165.417969 C 323.625 165.417969 325.90625 158.75 325.90625 157.871094 C 325.90625 157.609375 325.644531 157.347656 325.292969 157.347656 C 324.941406 157.347656 324.855469 157.695312 324.765625 157.871094 C 323.886719 160.503906 321.257812 161.292969 319.941406 161.292969 C 318.449219 161.292969 317.570312 160.679688 316.957031 157.519531 C 323.800781 155.152344 329.328125 148.222656 329.328125 141.378906 C 329.328125 135.324219 324.941406 130.585938 318.097656 130.585938 C 308.886719 130.585938 299.847656 139.269531 299.847656 148.046875 C 299.847656 154.273438 304.5 158.660156 311.167969 158.660156 C 311.957031 158.660156 313.273438 158.574219 315.289062 158.136719 Z M 308.535156 156.90625 C 306.515625 156.207031 303.621094 154.1875 303.621094 149.011719 C 303.621094 146.464844 304.5 141.378906 308.007812 136.988281 C 310.464844 134.007812 314.238281 131.8125 317.835938 131.8125 C 322.046875 131.8125 325.644531 134.707031 325.644531 140.324219 C 325.644531 144.183594 323.714844 152.519531 316.605469 156.117188 C 315.992188 153.660156 314.9375 151.992188 312.65625 151.992188 C 310.550781 151.992188 308.359375 153.835938 308.359375 155.855469 C 308.359375 156.554688 308.445312 156.644531 308.535156 156.90625 Z M 315.289062 156.730469 C 314.414062 156.996094 312.921875 157.433594 311.429688 157.433594 C 310.816406 157.433594 309.5 157.433594 309.5 155.855469 C 309.5 154.449219 311.078125 153.132812 312.65625 153.132812 C 314.0625 153.132812 315.113281 153.75 315.289062 156.730469 Z M 315.289062 156.730469 "/>
</svg>
